{
  "description": "Charging mode indicator for laptops. Allows to switch the charging mode from conservative or healthy to normal mode. Indicates also which mode you are using now. Works on Lenovo Slim 7.\n\nPlease Report Problems or issues on Gitlab at:\n\nhttps://gitlab.com/annexhack/conservation-mode-lenovo",
  "name": "ideapad mode",
  "shell-version": ["3.36", "38", "40", "41", "42"],
  "url": "https://gitlab.com/annexhack/conservation-mode-lenovo",
  "uuid": "ideapad-mode@annexhack.inceptive.ru",
  "version": 1.3
}
